{
  "reference": {
    "_evaluated": "2022-04-29 13:45:29.524963",
    "configuration": {
      "ips": 6713
    },
    "content": {
      "ips": 11018
    },
    "hierarchy": {
      "ips": 11219
    },
    "invoice": {
      "ips": 7256
    },
    "journey": {
      "ips": 5100
    },
    "post": {
      "ips": 24831
    }
  }
}